…
``` r
activity  
```

    ## # A tibble: 50,400 x 6
    ## # Groups:   week, day_id [35]
    ##    weekday_vs_weekend  week day_id day       activities  data
    ##    <chr>              <dbl>  <dbl> <fct>          <int> <dbl>
    ##  1 1                      1      1 Friday             1  88.4
    ##  2 1                      1      2 Monday             1   1  
    ##  3 0                      1      3 Saturday           1   1  
    ##  4 0                      1      4 Sunday             1   1  
    ##  5 1                      1      5 Thursday           1  47.4
    ##  6 1                      1      6 Tuesday            1  64.8
    ##  7 1                      1      7 Wednesday          1  71.1
    ##  8 1                      2      8 Friday             1 675  
    ##  9 1                      2      9 Monday             1 291  
    ## 10 0                      2     10 Saturday           1  64  
    ## # … with 50,390 more rows
…
